\relax 
\citation{Google}
\citation{BCC10,CMS09}
\citation{ACNS10}
\citation{GN07,Wan03,SAD07}
\citation{Boldi09}
\citation{SWYZ02,BCC10,DS11,CMS09,Yan2009,Anh05}
\citation{KN12,DS11,MS97}
\citation{KNCLOsigir13}
\@writefile{toc}{\contentsline {title}{Compact Data Structures for Information Retrieval on Natural Language}{1}}
\@writefile{toc}{\authcount {1}}
\@writefile{toc}{\contentsline {author}{Roberto Konow}{1}}
\@writefile{toc}{\contentsline {section}{\numberline {1}Introduction}{1}}
\citation{BFLN12}
\citation{BCNP12}
\citation{KN12}
\citation{NP10}
\citation{KNCLOsigir13}
\citation{MS97}
\@writefile{toc}{\contentsline {section}{\numberline {2}Challenges}{2}}
\@writefile{toc}{\contentsline {subsection}{\numberline {2.1}Improve current representations of inverted indices}{2}}
\@writefile{toc}{\contentsline {subsection}{\numberline {2.2}Find radically different indices for Natural Language collections}{2}}
\@writefile{toc}{\contentsline {section}{\numberline {3}Open Questions}{2}}
\@writefile{toc}{\contentsline {section}{\numberline {4}Goals}{2}}
\citation{Nav12,KN12}
\citation{KNCLOsigir13,KNdcc13}
\@writefile{toc}{\contentsline {section}{\numberline {5}Methodology}{3}}
\citation{DS11,BCNP12,CMS09}
\bibdata{paper}
\bibcite{Anh05}{1}
\bibcite{ACNS10}{2}
\bibcite{Boldi09}{3}
\bibcite{BCNP12}{4}
\bibcite{BFLN12}{5}
\bibcite{BCC10}{6}
\bibcite{CMS09}{7}
\bibcite{Google}{8}
\bibcite{DS11}{9}
\bibcite{GN07}{10}
\bibcite{KN12}{11}
\bibcite{KNdcc13}{12}
\bibcite{KNCLOsigir13}{13}
\bibcite{MS97}{14}
\bibcite{Nav12}{15}
\bibcite{NP10}{16}
\bibcite{SAD07}{17}
\bibcite{SWYZ02}{18}
\bibcite{Wan03}{19}
\bibcite{Yan2009}{20}
\bibstyle{plain}
